sim/alu_16bit.vcd
$date
	Tue Aug 19 16:30:07 2025
$end
$version
	Icarus Verilog
$end
$timescale
	1ps
$end
$scope module alu_16bit_tb $end
$var wire 1 ! zero $end
$var wire 16 " result [15:0] $end
$var wire 1 # overflow $end
$var wire 1 $ negative $end
$var wire 1 % carry $end
$var reg 16 & a [15:0] $end
$var reg 16 ' b [15:0] $end
$var reg 1 ( cin $end
$var reg 1 ) clk $end
$var reg 1 * en $end
$var reg 1 + expected_carry $end
$var reg 1 , expected_negative $end
$var reg 1 - expected_overflow $end
$var reg 16 . expected_result [15:0] $end
$var reg 1 / expected_zero $end
$var reg 4 0 opcode [3:0] $end
$var reg 1 1 rst_n $end
$var integer 32 2 error_count [31:0] $end
$var integer 32 3 i [31:0] $end
$var integer 32 4 test_count [31:0] $end
$scope module dut $end
$var wire 16 5 A [15:0] $end
$var wire 16 6 B [15:0] $end
$var wire 1 ) CLK $end
$var wire 1 ( Cin $end
$var wire 1 * EN $end
$var wire 4 7 OpCode [3:0] $end
$var wire 1 1 RST_n $end
$var wire 1 8 zero_comb $end
$var wire 16 9 shift_result [15:0] $end
$var wire 3 : shift_ctrl [2:0] $end
$var wire 1 ; shift_cout $end
$var wire 2 < result_sel [1:0] $end
$var wire 16 = result_comb [15:0] $end
$var wire 1 > overflow_comb $end
$var wire 16 ? op_sel [15:0] $end
$var wire 1 @ negative_comb $end
$var wire 16 A logic_result [15:0] $end
$var wire 3 B logic_ctrl [2:0] $end
$var wire 1 C carry_comb $end
$var wire 16 D arith_result [15:0] $end
$var wire 1 E arith_overflow $end
$var wire 3 F arith_ctrl [2:0] $end
$var wire 1 G arith_cout $end
$var reg 1 % Carry $end
$var reg 1 $ Negative $end
$var reg 1 # Overflow $end
$var reg 16 H Result [15:0] $end
$var reg 1 ! Zero $end
$var reg 16 I a_reg [15:0] $end
$var reg 16 J b_reg [15:0] $end
$var reg 1 K cin_reg $end
$var reg 1 L en_reg $end
$var reg 4 M opcode_reg [3:0] $end
$scope module u_arithmetic_unit $end
$var wire 16 N a [15:0] $end
$var wire 16 O b [15:0] $end
$var wire 1 K cin $end
$var wire 8 P sum_g3_c1 [7:0] $end
$var wire 8 Q sum_g3_c0 [7:0] $end
$var wire 8 R sum_g3 [7:0] $end
$var wire 3 S sum_g2 [2:0] $end
$var wire 3 T sum_g1 [2:0] $end
$var wire 2 U sum_g0 [1:0] $end
$var wire 16 V sum [15:0] $end
$var wire 1 W skip_carry_g2 $end
$var wire 1 X skip_carry_g1 $end
$var wire 4 Y group_propagate [3:0] $end
$var wire 4 Z group_generate [3:0] $end
$var wire 4 [ group_carry [3:0] $end
$var wire 3 \ ctrl [2:0] $end
$var wire 1 ] cout_g3_c1 $end
$var wire 1 ^ cout_g3_c0 $end
$var wire 1 _ carry_out $end
$var wire 1 ` c8 $end
$var wire 1 a c7 $end
$var wire 1 b c6 $end
$var wire 1 c c5 $end
$var wire 1 d c4 $end
$var wire 1 e c3 $end
$var wire 1 f c2 $end
$var wire 1 g c1 $end
$var wire 1 h c0 $end
$var reg 16 i b_mux [15:0] $end
$var reg 1 h cin_mux $end
$var reg 1 G cout $end
$var reg 1 E overflow $end
$var reg 16 j result [15:0] $end
$scope module fa0 $end
$var wire 1 k a $end
$var wire 1 l b $end
$var wire 1 h cin $end
$var wire 1 g cout $end
$var wire 1 m sum $end
$upscope $end
$scope module fa1 $end
$var wire 1 n a $end
$var wire 1 o b $end
$var wire 1 g cin $end
$var wire 1 f cout $end
$var wire 1 p sum $end
$upscope $end
$scope module fa2 $end
$var wire 1 q a $end
$var wire 1 r b $end
$var wire 1 e cin $end
$var wire 1 d cout $end
$var wire 1 s sum $end
$upscope $end
$scope module fa3 $end
$var wire 1 t a $end
$var wire 1 u b $end
$var wire 1 d cin $end
$var wire 1 c cout $end
$var wire 1 v sum $end
$upscope $end
$scope module fa4 $end
$var wire 1 w a $end
$var wire 1 x b $end
$var wire 1 c cin $end
$var wire 1 X cout $end
$var wire 1 y sum $end
$upscope $end
$scope module fa5 $end
$var wire 1 z a $end
$var wire 1 { b $end
$var wire 1 b cin $end
$var wire 1 a cout $end
$var wire 1 | sum $end
$upscope $end
$scope module fa6 $end
$var wire 1 } a $end
$var wire 1 ~ b $end
$var wire 1 a cin $end
$var wire 1 ` cout $end
$var wire 1 !" sum $end
$upscope $end
$scope module fa7 $end
$var wire 1 "" a $end
$var wire 1 #" b $end
$var wire 1 ` cin $end
$var wire 1 W cout $end
$var wire 1 $" sum $end
$upscope $end
$scope module rca_c0 $end
$var wire 8 %" a [7:0] $end
$var wire 8 &" b [7:0] $end
$var wire 1 '" cin $end
$var wire 8 (" sum [7:0] $end
$var wire 1 ^ cout $end
$var wire 8 )" carry [7:0] $end
$scope module fa[0] $end
$var wire 1 *" a $end
$var wire 1 +" b $end
$var wire 1 ," cin $end
$var wire 1 -" cout $end
$var wire 1 ." sum $end
$upscope $end
$scope module fa[1] $end
$var wire 1 /" a $end
$var wire 1 0" b $end
$var wire 1 1" cin $end
$var wire 1 2" cout $end
$var wire 1 3" sum $end
$upscope $end
$scope module fa[2] $end
$var wire 1 4" a $end
$var wire 1 5" b $end
$var wire 1 6" cin $end
$var wire 1 7" cout $end
$var wire 1 8" sum $end
$upscope $end
$scope module fa[3] $end
$var wire 1 9" a $end
$var wire 1 :" b $end
$var wire 1 ;" cin $end
$var wire 1 <" cout $end
$var wire 1 =" sum $end
$upscope $end
$scope module fa[4] $end
$var wire 1 >" a $end
$var wire 1 ?" b $end
$var wire 1 @" cin $end
$var wire 1 A" cout $end
$var wire 1 B" sum $end
$upscope $end
$scope module fa[5] $end
$var wire 1 C" a $end
$var wire 1 D" b $end
$var wire 1 E" cin $end
$var wire 1 F" cout $end
$var wire 1 G" sum $end
$upscope $end
$scope module fa[6] $end
$var wire 1 H" a $end
$var wire 1 I" b $end
$var wire 1 J" cin $end
$var wire 1 K" cout $end
$var wire 1 L" sum $end
$upscope $end
$scope module fa[7] $end
$var wire 1 M" a $end
$var wire 1 N" b $end
$var wire 1 O" cin $end
$var wire 1 P" cout $end
$var wire 1 Q" sum $end
$upscope $end
$upscope $end
$scope module rca_c1 $end
$var wire 8 R" a [7:0] $end
$var wire 8 S" b [7:0] $end
$var wire 1 T" cin $end
$var wire 8 U" sum [7:0] $end
$var wire 1 ] cout $end
$var wire 8 V" carry [7:0] $end
$scope module fa[0] $end
$var wire 1 W" a $end
$var wire 1 X" b $end
$var wire 1 Y" cin $end
$var wire 1 Z" cout $end
$var wire 1 [" sum $end
$upscope $end
$scope module fa[1] $end
$var wire 1 \" a $end
$var wire 1 ]" b $end
$var wire 1 ^" cin $end
$var wire 1 _" cout $end
$var wire 1 `" sum $end
$upscope $end
$scope module fa[2] $end
$var wire 1 a" a $end
$var wire 1 b" b $end
$var wire 1 c" cin $end
$var wire 1 d" cout $end
$var wire 1 e" sum $end
$upscope $end
$scope module fa[3] $end
$var wire 1 f" a $end
$var wire 1 g" b $end
$var wire 1 h" cin $end
$var wire 1 i" cout $end
$var wire 1 j" sum $end
$upscope $end
$scope module fa[4] $end
$var wire 1 k" a $end
$var wire 1 l" b $end
$var wire 1 m" cin $end
$var wire 1 n" cout $end
$var wire 1 o" sum $end
$upscope $end
$scope module fa[5] $end
$var wire 1 p" a $end
$var wire 1 q" b $end
$var wire 1 r" cin $end
$var wire 1 s" cout $end
$var wire 1 t" sum $end
$upscope $end
$scope module fa[6] $end
$var wire 1 u" a $end
$var wire 1 v" b $end
$var wire 1 w" cin $end
$var wire 1 x" cout $end
$var wire 1 y" sum $end
$upscope $end
$scope module fa[7] $end
$var wire 1 z" a $end
$var wire 1 {" b $end
$var wire 1 |" cin $end
$var wire 1 }" cout $end
$var wire 1 ~" sum $end
$upscope $end
$upscope $end
$upscope $end
$scope module u_control_decoder $end
$var wire 4 !# opcode [3:0] $end
$var reg 3 "# arith_ctrl [2:0] $end
$var reg 4 ## decode_high [3:0] $end
$var reg 4 $# decode_low [3:0] $end
$var reg 3 %# logic_ctrl [2:0] $end
$var reg 16 &# op_sel [15:0] $end
$var reg 2 '# result_sel [1:0] $end
$var reg 3 (# shift_ctrl [2:0] $end
$upscope $end
$scope module u_flag_generator $end
$var wire 1 G arith_carry $end
$var wire 1 E arith_ovf $end
$var wire 16 )# op_sel [15:0] $end
$var wire 16 *# operand_a [15:0] $end
$var wire 16 +# operand_b [15:0] $end
$var wire 4 ,# zero_group [3:0] $end
$var wire 1 8 zero_flag $end
$var wire 1 ; shift_carry $end
$var wire 16 -# result [15:0] $end
$var wire 1 @ negative_flag $end
$var reg 1 C carry_flag $end
$var reg 1 > overflow_flag $end
$upscope $end
$scope module u_logic_unit $end
$var wire 16 .# a [15:0] $end
$var wire 16 /# b [15:0] $end
$var wire 3 0# ctrl [2:0] $end
$var reg 16 1# result [15:0] $end
$scope begin bit_slice[0] $end
$var parameter 2 2# i $end
$upscope $end
$scope begin bit_slice[1] $end
$var parameter 2 3# i $end
$upscope $end
$scope begin bit_slice[2] $end
$var parameter 3 4# i $end
$upscope $end
$scope begin bit_slice[3] $end
$var parameter 3 5# i $end
$upscope $end
$scope begin bit_slice[4] $end
$var parameter 4 6# i $end
$upscope $end
$scope begin bit_slice[5] $end
$var parameter 4 7# i $end
$upscope $end
$scope begin bit_slice[6] $end
$var parameter 4 8# i $end
$upscope $end
$scope begin bit_slice[7] $end
$var parameter 4 9# i $end
$upscope $end
$scope begin bit_slice[8] $end
$var parameter 5 :# i $end
$upscope $end
$scope begin bit_slice[9] $end
$var parameter 5 ;# i $end
$upscope $end
$scope begin bit_slice[10] $end
$var parameter 5 <# i $end
$upscope $end
$scope begin bit_slice[11] $end
$var parameter 5 =# i $end
$upscope $end
$scope begin bit_slice[12] $end
$var parameter 5 ># i $end
$upscope $end
$scope begin bit_slice[13] $end
$var parameter 5 ?# i $end
$upscope $end
$scope begin bit_slice[14] $end
$var parameter 5 @# i $end
$upscope $end
$scope begin bit_slice[15] $end
$var parameter 5 A# i $end
$upscope $end
$upscope $end
$scope module u_result_mux $end
$var wire 16 B# arith_result [15:0] $end
$var wire 16 C# logic_result [15:0] $end
$var wire 16 D# pass_result [15:0] $end
$var wire 2 E# sel [1:0] $end
$var wire 16 F# shift_result [15:0] $end
$var reg 16 G# final_result [15:0] $end
$upscope $end
$scope module u_shift_unit $end
$var wire 16 H# a [15:0] $end
$var wire 1 K carry_in $end
$var wire 3 I# ctrl [2:0] $end
$var reg 1 ; carry_out $end
$var reg 16 J# result [15:0] $end
$upscope $end
$upscope $end
$scope task apply_test $end
$var reg 16 K# test_a [15:0] $end
$var reg 16 L# test_b [15:0] $end
$var reg 1 M# test_cin $end
$var reg 4 N# test_op [3:0] $end
$upscope $end
$scope task check_result $end
$upscope $end
$scope task reset_dut $end
$upscope $end
$scope task run_random_tests $end
$scope begin $unm_blk_57 $end
$var reg 16 O# rand_a [15:0] $end
$var reg 16 P# rand_b [15:0] $end
$var reg 1 Q# rand_cin $end
$var reg 4 R# rand_op [3:0] $end
$upscope $end
$upscope $end
$scope task test_add_operation $end
$upscope $end
$scope task test_logic_operations $end
$upscope $end
$scope task test_shift_operations $end
$upscope $end
$scope task test_special_operations $end
$upscope $end
$scope task test_sub_operation $end
$upscope $end
$upscope $end
$enddefinitions $end
$comment Show the parameter values. $end
$dumpall
b1111 A#
b1110 @#
b1101 ?#
b1100 >#
b1011 =#
b1010 <#
b1001 ;#
b1000 :#
b111 9#
b110 8#
b101 7#
b100 6#
b11 5#
b10 4#
b1 3#
b0 2#
$end
#0
$dumpvars
bx R#
xQ#
bx P#
bx O#
bx N#
xM#
bx L#
bx K#
b0 J#
b0 I#
b0 H#
b0 G#
b0 F#
b0 E#
b0 D#
b0 C#
b0 B#
b0 1#
b0 0#
b0 /#
b0 .#
b0 -#
b1111 ,#
b0 +#
b0 *#
b1 )#
b0 (#
b0 '#
b1 &#
b0 %#
b1 $#
b1 ##
b0 "#
b0 !#
0~"
0}"
0|"
0{"
0z"
0y"
0x"
0w"
0v"
0u"
0t"
0s"
0r"
0q"
0p"
0o"
0n"
0m"
0l"
0k"
0j"
0i"
0h"
0g"
0f"
0e"
0d"
0c"
0b"
0a"
0`"
0_"
0^"
0]"
0\"
1["
0Z"
1Y"
0X"
0W"
b0 V"
b1 U"
1T"
b0 S"
b0 R"
0Q"
0P"
0O"
0N"
0M"
0L"
0K"
0J"
0I"
0H"
0G"
0F"
0E"
0D"
0C"
0B"
0A"
0@"
0?"
0>"
0="
0<"
0;"
0:"
09"
08"
07"
06"
05"
04"
03"
02"
01"
00"
0/"
0."
0-"
0,"
0+"
0*"
b0 )"
b0 ("
0'"
b0 &"
b0 %"
0$"
0#"
0""
0!"
0~
0}
0|
0{
0z
0y
0x
0w
0v
0u
0t
0s
0r
0q
0p
0o
0n
0m
0l
0k
b0 j
b0 i
0h
0g
0f
0e
0d
0c
0b
0a
0`
0_
0^
0]
b0 \
b0 [
bz0 Z
bz000 Y
0X
0W
b0 V
b0 U
b0 T
b0 S
b0 R
b0 Q
b1 P
b0 O
b0 N
b0 M
0L
0K
b0 J
b0 I
b0 H
0G
b0 F
0E
b0 D
0C
b0 B
b0 A
0@
b1 ?
0>
b0 =
b0 <
0;
b0 :
b0 9
18
b0 7
b0 6
b0 5
b0 4
bx 3
b0 2
01
b0 0
x/
bx .
x-
x,
x+
0*
0)
0(
b0 '
b0 &
0%
0$
0#
b0 "
0!
$end
#5000
1)
#10000
0)
#15000
1)
#20000
0)
#25000
11
1)
#30000
0)
#35000
1="
1j"
1;"
1h"
17"
1d"
1G"
1t"
1$"
16"
1E"
1c"
1r"
08
b0 ,#
1b
1`
b10 [
12"
08"
b10110 )"
1A"
1L"
1_"
0e"
b10110 V"
1n"
1y"
b110100010101100 =
b110100010101100 -#
b110100010101100 G#
b1101000 R
1v
1X
1a
0!"
b110100010101100 D
b110100010101100 j
b110100010101100 B#
03"
b1101000 Q
b1101000 ("
0B"
0`"
b1101001 P
b1101001 U"
0o"
10"
15"
1?"
1I"
1]"
1b"
1l"
1v"
1s
b11 T
0y
b110100010101100 V
b101 S
1|
1u
1x
1{
1~
b1010110 &"
b1010110 S"
1/"
1>"
1\"
1k"
b101011001111000 i
1q
1w
1z
b10010 %"
b10010 R"
b1001000110000 A
b1001000110000 1#
b1001000110000 C#
b10010001101000 9
b10010001101000 F#
b10010001101000 J#
1L
b101011001111000 J
b101011001111000 O
b101011001111000 +#
b101011001111000 /#
b1001000110100 I
b1001000110100 N
b1001000110100 *#
b1001000110100 .#
b1001000110100 D#
b1001000110100 H#
1*
b101011001111000 '
b101011001111000 6
b1001000110100 &
b1001000110100 5
0M#
b0 N#
b101011001111000 L#
b1001000110100 K#
1)
#40000
0)
#45000
b110100010101100 "
b110100010101100 H
1)
#50000
0)
#55000
18
1C
1`
1G
0;"
1h"
1_
1a
1d
07"
0^
1d"
1]
0s
1b
b1111 ,#
0P"
1}"
1e
0@
06"
0@"
0E"
0J"
1^"
1c"
1m"
1r"
1w"
1f
1X
0O"
1|"
0y
13"
02"
1B"
0A"
0`"
1_"
0o"
1n"
b0 =
b0 -#
b0 G#
b1111 [
0<"
0F"
b0 R
1Z"
1i"
1s"
1g
bz1 Z
0|
b0 D
b0 j
b0 B#
1W
1."
18"
1="
1G"
1L"
b0 )"
0K"
b11111111 Q
b11111111 ("
1Q"
0["
0e"
0j"
0t"
0y"
b11111111 V"
1x"
b0 P
b0 U"
0~"
00"
05"
0?"
0I"
0]"
0b"
0l"
0v"
0m
b0 U
0p
bz110 Y
b0 T
0v
1c
0!"
b0 V
b0 S
0$"
1l
0u
0x
0{
0~
b0 &"
b0 S"
1*"
14"
19"
1C"
1H"
1M"
1W"
1a"
1f"
1p"
1u"
1z"
b1 i
1k
1n
1t
1}
1""
b11111111 %"
b11111111 R"
b1 A
b1 1#
b1 C#
1;
b1111111111111110 9
b1111111111111110 F#
b1111111111111110 J#
b1 J
b1 O
b1 +#
b1 /#
b1111111111111111 I
b1111111111111111 N
b1111111111111111 *#
b1111111111111111 .#
b1111111111111111 D#
b1111111111111111 H#
b1 '
b1 6
b1111111111111111 &
b1111111111111111 5
b1 L#
b1111111111111111 K#
0,
0-
0+
0/
b110100010101100 .
b1 4
1)
#60000
0)
#65000
1%
1!
b0 "
b0 H
1)
#70000
0)
#75000
08
b111 ,#
0G
1@
0_
1>
b1000000000000000 =
b1000000000000000 -#
b1000000000000000 G#
b111 [
1E
b1000000000000000 D
b1000000000000000 j
b1000000000000000 B#
0]
b1000000000000000 V
b10000000 R
b1111111 V"
0}"
b1111111 Q
b1111111 ("
0Q"
b10000000 P
b10000000 U"
1~"
0M"
0z"
0C
b1111111 %"
b1111111 R"
0;
b1111111111111110 9
b1111111111111110 F#
b1111111111111110 J#
b111111111111111 I
b111111111111111 N
b111111111111111 *#
b111111111111111 .#
b111111111111111 D#
b111111111111111 H#
b111111111111111 &
b111111111111111 5
b111111111111111 K#
1+
1/
b0 .
b10 4
1)
#80000
0)
#85000
1$
1#
0%
0!
b1000000000000000 "
b1000000000000000 H
1)
#90000
0)
#95000
1C
1@"
1G
1^
1_
1<"
1P"
1a
08"
1y"
1;"
1J"
1O"
1c"
1r"
1]
1b
1}"
1F"
0@
17"
1L"
1K"
0Q"
1_"
1e"
1n"
0~"
1X
1!"
06"
1E"
1^"
1m"
1w"
b0 ,#
1+"
15"
1:"
1D"
1I"
1N"
1X"
1b"
1g"
1q"
1v"
1{"
1c
1o
1u
1~
1#"
1g
13"
02"
0B"
b11111100 )"
1A"
0`"
0o"
1e
0v
1Z"
1i"
b1000100 R
b11111111 V"
1s"
b100010001000100 =
b100010001000100 -#
b100010001000100 G#
0m
0y
0|
b1111 [
1f
bz0 Z
0d
0E
b100010001000100 D
b100010001000100 j
b100010001000100 B#
1W
1."
0="
b1000011 Q
b1000011 ("
0G"
0["
0j"
b1000100 P
b1000100 U"
0t"
b0 <
b0 '#
b0 E#
b1 F
b1 \
b1 "#
0>
00"
0?"
0]"
0l"
b0 U
0p
b1 T
1s
b100010001000100 V
b10 S
0$"
bz001 Y
b10 ?
b10 &#
b10 )#
1l
0r
0x
0{
b11101101 &"
b11101101 S"
0*"
09"
0C"
0W"
0f"
0p"
b10 $#
b1 ##
1h
b1110110111001011 i
0k
0n
0q
0""
b1010110 %"
b1010110 R"
b1001000110000 A
b1001000110000 1#
b1001000110000 C#
b1010110011110000 9
b1010110011110000 F#
b1010110011110000 J#
1K
b1 M
b1 !#
b1001000110100 J
b1001000110100 O
b1001000110100 +#
b1001000110100 /#
b101011001111000 I
b101011001111000 N
b101011001111000 *#
b101011001111000 .#
b101011001111000 D#
b101011001111000 H#
1(
b1 0
b1 7
b1001000110100 '
b1001000110100 6
b101011001111000 &
b101011001111000 5
1M#
b1 N#
b1001000110100 L#
b101011001111000 K#
1,
1-
0+
0/
b1000000000000000 .
b11 4
1)
#100000
0)
#105000
0$
0#
1%
b100010001000100 "
b100010001000100 H
1)
#110000
0)
#115000
0C
0G
0_
1@
1]
0^
1}"
0P"
0~"
1Q"
1m"
1|"
0O"
1i"
1x"
0K"
0j"
1h"
1w"
b0 ,#
0@"
0J"
1d"
1s"
0e
0W
0<"
0F"
0t"
0f
1$"
1="
1G"
1c"
1r"
1p
0b
0`
0;"
0E"
0g
0d
b0 [
b1111111111111111 =
b1111111111111111 -#
b1111111111111111 G#
0A"
1_"
b11111111 V"
1n"
b11111111 R
b11 U
1m
bz110 Y
1s
0X
0a
b1111111111111111 D
b1111111111111111 j
b1111111111111111 B#
13"
18"
b0 )"
07"
1B"
b11111111 Q
b11111111 ("
1L"
0`"
0e"
0o"
b0 P
b0 U"
0y"
10"
1?"
1]"
1l"
1v
0c
b111 T
1y
1|
b1111111111111111 V
b111 S
1!"
0l
1r
1x
1{
b11111111 &"
b11111111 S"
0/"
04"
0>"
0H"
0\"
0a"
0k"
0u"
b1111111111111110 i
0t
0w
0z
0}
b0 %"
b0 R"
b0 A
b0 1#
b0 C#
b0 9
b0 F#
b0 J#
b1 J
b1 O
b1 +#
b1 /#
b0 I
b0 N
b0 *#
b0 .#
b0 D#
b0 H#
b1 '
b1 6
b0 &
b0 5
b1 L#
b0 K#
0,
0-
1+
b100010001000100 .
b100 4
1)
#120000
0)
#125000
1$
0%
b1111111111111111 "
b1111111111111111 H
1)
#130000
0)
#135000
0]
0}"
0|"
0x"
0w"
0s"
0r"
0n"
0^"
0c"
0h"
0m"
1b
0Z"
0_"
0d"
b0 V"
0i"
0."
03"
08"
0="
1["
0`"
0e"
0j"
0G
0_
0+"
00"
05"
0:"
0?"
0D"
0I"
0N"
0X"
0]"
0b"
0g"
0l"
0q"
0v"
0{"
b1101 ,#
0E"
0J"
0O"
1l
b0 &"
b0 S"
0@
b110 [
b11110001 R
0^
1p
1s
1v
b11110000 =
b11110000 -#
b11110000 G#
1B"
0A"
1G"
0F"
1L"
0K"
b11110000 Q
b11110000 ("
1Q"
b0 )"
0P"
1o"
1t"
1y"
b11110001 P
b11110001 U"
1~"
b1 <
b1 '#
b1 E#
b0 F
b0 \
b0 "#
b1111000111101111 D
b1111000111101111 j
b1111000111101111 B#
b11 T
0y
1X
1|
1a
1!"
1`
b111 S
1$"
1W
bz001 Y
b100 ?
b100 &#
b100 )#
1o
1r
1u
1x
1{
1~
1#"
b1111000111101111 V
b11 U
1m
1>"
1C"
1H"
1M"
1k"
1p"
1u"
1z"
b100 $#
b1 ##
0h
b11111111 i
1w
1z
1}
1""
b11110000 %"
b11110000 R"
b11110000 A
b11110000 1#
b11110000 C#
1;
b1110000111100000 9
b1110000111100000 F#
b1110000111100000 J#
0K
b10 M
b10 !#
b11111111 J
b11111111 O
b11111111 +#
b11111111 /#
b1111000011110000 I
b1111000011110000 N
b1111000011110000 *#
b1111000011110000 .#
b1111000011110000 D#
b1111000011110000 H#
0(
b10 0
b10 7
b11111111 '
b11111111 6
b1111000011110000 &
b1111000011110000 5
0M#
b10 N#
b11111111 L#
b1111000011110000 K#
1,
0+
b1111111111111111 .
b101 4
1)
#140000
0)
#145000
0$
b11110000 "
b11110000 H
1)
#150000
0)
#155000
b100 ,#
1@
b1111000011111111 =
b1111000011111111 -#
b1111000011111111 G#
b1111000011111111 A
b1111000011111111 1#
b1111000011111111 C#
b1 <
b1 '#
b1 E#
b1 B
b1 %#
b1 0#
b1000 ?
b1000 &#
b1000 )#
b1000 $#
b1 ##
b11 M
b11 !#
b11 0
b11 7
b11 N#
0,
b11110000 .
b110 4
1)
#160000
0)
#165000
1$
b1111000011111111 "
b1111000011111111 H
1)
#170000
0)
#175000
b110 ,#
b1111000000001111 =
b1111000000001111 -#
b1111000000001111 G#
b1111000000001111 A
b1111000000001111 1#
b1111000000001111 C#
b1 <
b1 '#
b1 E#
b10 B
b10 %#
b10 0#
b10000 ?
b10000 &#
b10000 )#
b1 $#
b10 ##
b100 M
b100 !#
b100 0
b100 7
b100 N#
1,
b1111000011111111 .
b111 4
1)
#180000
0)
#185000
b1111000000001111 "
b1111000000001111 H
1)
#190000
0)
#195000
1`"
0`
1^"
0b
0p
0v
b0 [
0a
0W
b1 V"
1Z"
b1010101 R
1y
0X
1!"
b101010101010101 D
b101010101010101 j
b101010101010101 B#
1."
18"
0G"
b1010101 Q
b1010101 ("
0Q"
0["
1e"
0t"
b1010110 P
b1010110 U"
0~"
b0 ,#
b1 <
b1 '#
b1 E#
b11 B
b11 %#
b11 0#
b1 U
1m
0g
bz000 Y
b101 T
1s
0d
0|
b101010101010101 V
b10 S
0$"
1@
b100000 ?
b100000 &#
b100000 )#
0l
0o
0r
0u
0x
0{
0~
0#"
1*"
14"
0C"
0M"
1W"
1a"
0p"
0z"
b1010101010101010 =
b1010101010101010 -#
b1010101010101010 G#
b10 $#
b10 ##
b0 i
0E
1k
1q
0z
0""
b1010101 %"
b1010101 R"
b1010101010101010 A
b1010101010101010 1#
b1010101010101010 C#
0;
b1010101010101010 9
b1010101010101010 F#
b1010101010101010 J#
b101 M
b101 !#
b0 J
b0 O
b0 +#
b0 /#
b101010101010101 I
b101010101010101 N
b101010101010101 *#
b101010101010101 .#
b101010101010101 D#
b101010101010101 H#
b101 0
b101 7
b0 '
b0 6
b101010101010101 &
b101010101010101 5
b101 N#
b0 L#
b101010101010101 K#
b1111000000001111 .
b1000 4
1)
#200000
0)
#205000
b1010101010101010 "
b1010101010101010 H
1)
#210000
0)
#215000
b0 A
b0 1#
b0 C#
b10 <
b10 '#
b10 E#
b0 B
b0 %#
b0 0#
b1000000 ?
b1000000 &#
b1000000 )#
b100 $#
b10 ##
b110 M
b110 !#
b110 0
b110 7
b110 N#
b1010101010101010 .
b1001 4
1)
#220000
0)
#225000
1)
#230000
0)
#235000
0^"
0c"
b10101010 R
0Z"
b0 V"
0_"
b1010101010101010 D
b1010101010101010 j
b1010101010101010 B#
0."
13"
08"
1="
0B"
1G"
0L"
b10101010 Q
b10101010 ("
1Q"
1["
1`"
0e"
1j"
0o"
1t"
0y"
b10101011 P
b10101011 U"
1~"
b10 <
b10 '#
b10 E#
b1 :
b1 (#
b1 I#
0m
b10 U
1p
0s
1v
b10 T
0y
1|
0!"
b1010101010101010 V
b101 S
1$"
b10000000 ?
b10000000 &#
b10000000 )#
0*"
1/"
04"
19"
0>"
1C"
0H"
1M"
0W"
1\"
0a"
1f"
0k"
1p"
0u"
1z"
0@
0C
b1000 $#
b10 ##
0k
1n
0q
1t
0w
1z
0}
1""
b10101010 %"
b10101010 R"
b101010101010101 =
b101010101010101 -#
b101010101010101 G#
0;
b101010101010101 9
b101010101010101 F#
b101010101010101 J#
b111 M
b111 !#
b1010101010101010 I
b1010101010101010 N
b1010101010101010 *#
b1010101010101010 .#
b1010101010101010 D#
b1010101010101010 H#
b111 0
b111 7
b1010101010101010 &
b1010101010101010 5
b111 N#
b1010101010101010 K#
b1010 4
1)
#240000
0)
#245000
0$
b101010101010101 "
b101010101010101 H
1)
#250000
0)
#255000
1@
b10000000 R
b1000000000000000 D
b1000000000000000 j
b1000000000000000 B#
03"
0="
b10000000 Q
b10000000 ("
0G"
0`"
0j"
b10000001 P
b10000001 U"
0t"
b10 <
b10 '#
b10 E#
b10 :
b10 (#
b10 I#
b0 U
0p
b0 T
0v
0|
b1000000000000000 V
b0 S
0$"
b111 ,#
b100000000 ?
b100000000 &#
b100000000 )#
0/"
09"
0C"
0\"
0f"
0p"
b1 $#
b100 ##
0n
0t
0z
0""
b10000000 %"
b10000000 R"
b1100000000000000 =
b1100000000000000 -#
b1100000000000000 G#
b1100000000000000 9
b1100000000000000 F#
b1100000000000000 J#
b1000 M
b1000 !#
b1000000000000000 I
b1000000000000000 N
b1000000000000000 *#
b1000000000000000 .#
b1000000000000000 D#
b1000000000000000 H#
b1000 0
b1000 7
b1000000000000000 &
b1000000000000000 5
b1000 N#
b1000000000000000 K#
0,
b101010101010101 .
b1011 4
1)
#260000
0)
#265000
1$
b1100000000000000 "
b1100000000000000 H
1)
#270000
0)
#275000
b1110 ,#
0@
b11 =
b11 -#
b11 G#
b1000000000000001 D
b1000000000000001 j
b1000000000000001 B#
b10 <
b10 '#
b10 E#
b11 :
b11 (#
b11 I#
b1000000000000001 V
b1 U
1m
b1000000000 ?
b1000000000 &#
b1000000000 )#
1C
b10 $#
b100 ##
1k
1;
b11 9
b11 F#
b11 J#
b1001 M
b1001 !#
b1000000000000001 I
b1000000000000001 N
b1000000000000001 *#
b1000000000000001 .#
b1000000000000001 D#
b1000000000000001 H#
b1001 0
b1001 7
b1000000000000001 &
b1000000000000001 5
b1001 N#
b1000000000000001 K#
1,
b1100000000000000 .
b1100 4
1)
#280000
0)
#285000
0$
1%
b11 "
b11 H
1)
#290000
0)
#295000
08
b111 ,#
b1 D
b1 j
b1 B#
1@
b1 V
b0 R
b0 Q
b0 ("
0Q"
b1 P
b1 U"
0~"
b10 <
b10 '#
b10 E#
b100 :
b100 (#
b100 I#
b10000000000 ?
b10000000000 &#
b10000000000 )#
0M"
0z"
1C
b100 $#
b100 ##
0E
b0 %"
b0 R"
b1000000000000000 =
b1000000000000000 -#
b1000000000000000 G#
1;
b1000000000000000 9
b1000000000000000 F#
b1000000000000000 J#
b1010 M
b1010 !#
b1 I
b1 N
b1 *#
b1 .#
b1 D#
b1 H#
b1010 0
b1010 7
b1 &
b1 5
b1010 N#
b1 K#
0,
1+
b11 .
b1101 4
1)
#300000
0)
#305000
1$
b1000000000000000 "
b1000000000000000 H
1)
#310000
0)
